{
  "name": "passport-local-basics",
  "version": "1.0.0",
  "description": "",
  "main": "app.js",
  "devDependencies": {
    "nodemon": "2.0.20"
  },
  "scripts": {
    "start": "node ./bin/www",
    "devstart": "nodemon ./bin/www",
    "test": "echo \"Error: no test specified\" && exit 1"
  },
  "dependencies": {
    "async": "^2.6.1",
    "bcrypt": "5.1.0",
    "bluebird": "^3.5.0",
    "body-parser": "^1.18.3",
    "crypto": "^1.0.1",
    "dateformat": "^3.0.3",
    "debug": "^2.6.9",
    "express": "^4.16.3",
    "express-flash-messages": "^0.1.1",
    "express-handlebars": "^6.0.7",
    "express-session": "^1.15.6",
    "handlebars-helpers": "^0.9.8",
    "moment": "^2.22.2",
    "mongoose": "^5.2.9",
    "mongoose-unique-validator": "^2.0.1",
    "morgan": "^1.9.0",
    "nodemailer": "^6.9.1",
    "passport": "^0.6.0",
    "passport-local": "^1.0.0",
    "serve-favicon": "^2.5.0",
    "static-favicon": "^2.0.0-alpha"
  },
  "author": "Ashis Raj",
  "license": "ISC"
}